{"failedCount":1,"prefixedPath":"src\/test\/java\/features\/SampleAPI.feature","packageQualifiedName":"src.test.java.features.SampleAPI","loopIndex":-1,"relativePath":"src\/test\/java\/features\/SampleAPI.feature","scenarioResults":[{"sectionIndex":0,"stepResults":[{"result":{"nanos":141075300,"millis":141.0753,"status":"passed"},"step":{"line":4,"prefix":"*","index":0,"text":"url \"https:\/\/reqres.in\/api\/users?page=2\""}},{"result":{"nanos":1085516100,"millis":1085.5161,"status":"passed"},"step":{"line":5,"prefix":"*","index":1,"text":"method GET"},"stepLog":"19:52:31.922 request:\n1 > GET https:\/\/reqres.in\/api\/users?page=2\n1 > Host: reqres.in\n1 > Connection: Keep-Alive\n1 > User-Agent: Apache-HttpClient\/4.5.12 (Java\/18.0.1.1)\n1 > Accept-Encoding: gzip,deflate\n\n\n19:52:32.380 response time in milliseconds: 448\n1 < 200\n1 < Date: Tue, 21 Feb 2023 18:52:32 GMT\n1 < Content-Type: application\/json; charset=utf-8\n1 < Transfer-Encoding: chunked\n1 < Connection: keep-alive\n1 < X-Powered-By: Express\n1 < Access-Control-Allow-Origin: *\n1 < Etag: W\/\"406-ut0vzoCuidvyMf8arZpMpJ6ZRDw\"\n1 < Via: 1.1 vegur\n1 < Cache-Control: max-age=14400\n1 < CF-Cache-Status: HIT\n1 < Age: 203\n1 < Report-To: {\"endpoints\":[{\"url\":\"https:\\\/\\\/a.nel.cloudflare.com\\\/report\\\/v3?s=xTmsKoRN2fE9rFPH53wQ%2Fc2SXumJLY0K0jzNCO29VUkKHhbljpPFKoPjj0tJG8YAV52heIVCgw1ev51sWcoCngI9gePz%2FIT%2BHF3wCb4lfDhq86RPFfJFF%2FakuA%3D%3D\"}],\"group\":\"cf-nel\",\"max_age\":604800}\n1 < NEL: {\"success_fraction\":0,\"report_to\":\"cf-nel\",\"max_age\":604800}\n1 < Vary: Accept-Encoding\n1 < Server: cloudflare\n1 < CF-RAY: 79d1adfbfff90b41-OSL\n{\"page\":2,\"per_page\":6,\"total\":12,\"total_pages\":2,\"data\":[{\"id\":7,\"email\":\"michael.lawson@reqres.in\",\"first_name\":\"Michael\",\"last_name\":\"Lawson\",\"avatar\":\"https:\/\/reqres.in\/img\/faces\/7-image.jpg\"},{\"id\":8,\"email\":\"lindsay.ferguson@reqres.in\",\"first_name\":\"Lindsay\",\"last_name\":\"Ferguson\",\"avatar\":\"https:\/\/reqres.in\/img\/faces\/8-image.jpg\"},{\"id\":9,\"email\":\"tobias.funke@reqres.in\",\"first_name\":\"Tobias\",\"last_name\":\"Funke\",\"avatar\":\"https:\/\/reqres.in\/img\/faces\/9-image.jpg\"},{\"id\":10,\"email\":\"byron.fields@reqres.in\",\"first_name\":\"Byron\",\"last_name\":\"Fields\",\"avatar\":\"https:\/\/reqres.in\/img\/faces\/10-image.jpg\"},{\"id\":11,\"email\":\"george.edwards@reqres.in\",\"first_name\":\"George\",\"last_name\":\"Edwards\",\"avatar\":\"https:\/\/reqres.in\/img\/faces\/11-image.jpg\"},{\"id\":12,\"email\":\"rachel.howell@reqres.in\",\"first_name\":\"Rachel\",\"last_name\":\"Howell\",\"avatar\":\"https:\/\/reqres.in\/img\/faces\/12-image.jpg\"}],\"support\":{\"url\":\"https:\/\/reqres.in\/#support-heading\",\"text\":\"To keep ReqRes free, contributions towards server costs are appreciated!\"}}\n\n"},{"result":{"nanos":6136400,"millis":6.1364,"status":"passed"},"step":{"line":6,"prefix":"*","index":2,"text":"status 200"}},{"result":{"nanos":30931400,"millis":30.9314,"status":"passed"},"step":{"line":7,"prefix":"*","index":3,"text":"match  header Content-Type == \"application\/json; charset=utf-8\""}},{"result":{"nanos":94393100,"errorMessage":"js failed:\n>>>>\n01: karate.log('[print]',responsetime)\n<<<<\norg.graalvm.polyglot.PolyglotException: ReferenceError: \"responsetime\" is not defined\n- <js>.:program(Unnamed:1)\n\nsrc\/test\/java\/features\/SampleAPI.feature:8","millis":94.3931,"status":"failed"},"step":{"line":8,"prefix":"*","index":4,"text":"print responsetime"},"stepLog":"19:52:32.564 src\/test\/java\/features\/SampleAPI.feature:8\n* print responsetime\njs failed:\n>>>>\n01: karate.log('[print]',responsetime)\n<<<<\norg.graalvm.polyglot.PolyglotException: ReferenceError: \"responsetime\" is not defined\n- <js>.:program(Unnamed:1)\n\nsrc\/test\/java\/features\/SampleAPI.feature:8\n"},{"result":{"nanos":0,"millis":0.0,"status":"skipped"},"step":{"line":9,"prefix":"*","index":5,"text":"print response"}}],"line":3,"description":"","durationMillis":1358.0523,"failed":true,"error":"js failed:\n>>>>\n01: karate.log('[print]',responsetime)\n<<<<\norg.graalvm.polyglot.PolyglotException: ReferenceError: \"responsetime\" is not defined\n- <js>.:program(Unnamed:1)\n\nsrc\/test\/java\/features\/SampleAPI.feature:8","executorName":"main","name":"Test Sample Get API","startTime":1677005551130,"refId":"[1:3]","endTime":1677005552564,"exampleIndex":-1}],"callDepth":0,"name":"CRUD","description":"","resultDate":"2023-02-21 07:52:32 em","durationMillis":1358.0523,"passedCount":0}