{"failedCount":0,"prefixedPath":"src\/test\/java\/features\/SampleAPI.feature","packageQualifiedName":"src.test.java.features.SampleAPI","loopIndex":-1,"relativePath":"src\/test\/java\/features\/SampleAPI.feature","scenarioResults":[{"sectionIndex":0,"stepResults":[{"result":{"nanos":187443200,"millis":187.4432,"status":"passed"},"step":{"line":4,"prefix":"*","index":0,"text":"url \"https:\/\/reqres.in\/api\/users?page=2\""}},{"result":{"nanos":1972490000,"millis":1972.49,"status":"passed"},"step":{"line":5,"prefix":"*","index":1,"text":"method GET"},"stepLog":"19:49:09.089 request:\n1 > GET https:\/\/reqres.in\/api\/users?page=2\n1 > Host: reqres.in\n1 > Connection: Keep-Alive\n1 > User-Agent: Apache-HttpClient\/4.5.12 (Java\/18.0.1.1)\n1 > Accept-Encoding: gzip,deflate\n\n\n19:49:10.097 response time in milliseconds: 997\n1 < 200\n1 < Date: Tue, 21 Feb 2023 18:49:09 GMT\n1 < Content-Type: application\/json; charset=utf-8\n1 < Transfer-Encoding: chunked\n1 < Connection: keep-alive\n1 < X-Powered-By: Express\n1 < Access-Control-Allow-Origin: *\n1 < Etag: W\/\"406-ut0vzoCuidvyMf8arZpMpJ6ZRDw\"\n1 < Via: 1.1 vegur\n1 < Cache-Control: max-age=14400\n1 < CF-Cache-Status: REVALIDATED\n1 < Report-To: {\"endpoints\":[{\"url\":\"https:\\\/\\\/a.nel.cloudflare.com\\\/report\\\/v3?s=CWtrJh%2BtvjGZO%2BqX9M9s2y07L9RHgH7RMkCvs171jDOPuxJQCTi%2BYjXR6iFK%2F5udbEQHdpszEqWFDYkX5LiZKlABq3yN8P30VDWbc1%2BPJV6tbVGVmLiDjGghAw%3D%3D\"}],\"group\":\"cf-nel\",\"max_age\":604800}\n1 < NEL: {\"success_fraction\":0,\"report_to\":\"cf-nel\",\"max_age\":604800}\n1 < Vary: Accept-Encoding\n1 < Server: cloudflare\n1 < CF-RAY: 79d1a90a98dcb4f3-OSL\n{\"page\":2,\"per_page\":6,\"total\":12,\"total_pages\":2,\"data\":[{\"id\":7,\"email\":\"michael.lawson@reqres.in\",\"first_name\":\"Michael\",\"last_name\":\"Lawson\",\"avatar\":\"https:\/\/reqres.in\/img\/faces\/7-image.jpg\"},{\"id\":8,\"email\":\"lindsay.ferguson@reqres.in\",\"first_name\":\"Lindsay\",\"last_name\":\"Ferguson\",\"avatar\":\"https:\/\/reqres.in\/img\/faces\/8-image.jpg\"},{\"id\":9,\"email\":\"tobias.funke@reqres.in\",\"first_name\":\"Tobias\",\"last_name\":\"Funke\",\"avatar\":\"https:\/\/reqres.in\/img\/faces\/9-image.jpg\"},{\"id\":10,\"email\":\"byron.fields@reqres.in\",\"first_name\":\"Byron\",\"last_name\":\"Fields\",\"avatar\":\"https:\/\/reqres.in\/img\/faces\/10-image.jpg\"},{\"id\":11,\"email\":\"george.edwards@reqres.in\",\"first_name\":\"George\",\"last_name\":\"Edwards\",\"avatar\":\"https:\/\/reqres.in\/img\/faces\/11-image.jpg\"},{\"id\":12,\"email\":\"rachel.howell@reqres.in\",\"first_name\":\"Rachel\",\"last_name\":\"Howell\",\"avatar\":\"https:\/\/reqres.in\/img\/faces\/12-image.jpg\"}],\"support\":{\"url\":\"https:\/\/reqres.in\/#support-heading\",\"text\":\"To keep ReqRes free, contributions towards server costs are appreciated!\"}}\n\n"},{"result":{"nanos":11107300,"millis":11.1073,"status":"passed"},"step":{"line":6,"prefix":"*","index":2,"text":"status 200"}}],"executorName":"main","line":3,"name":"Test Sample Get API","description":"","durationMillis":2171.0405,"startTime":1677005347996,"failed":false,"refId":"[1:3]","endTime":1677005350228,"exampleIndex":-1}],"callDepth":0,"name":"CRUD","description":"","resultDate":"2023-02-21 07:49:10 em","durationMillis":2171.0405,"passedCount":1}