{"failedCount":0,"prefixedPath":"src\/test\/java\/features\/SampleAPI.feature","packageQualifiedName":"src.test.java.features.SampleAPI","loopIndex":-1,"relativePath":"src\/test\/java\/features\/SampleAPI.feature","scenarioResults":[{"sectionIndex":1,"stepResults":[{"result":{"nanos":124511300,"millis":124.5113,"status":"passed"},"step":{"background":true,"line":4,"prefix":"*","index":0,"text":"url \"https:\/\/reqres.in\/api\/\""}},{"result":{"nanos":1987100,"millis":1.9871,"status":"passed"},"step":{"background":true,"line":5,"prefix":"*","index":1,"text":"header Accept = \"application\/json; charset=utf-8\""}},{"result":{"nanos":501000,"millis":0.501,"status":"passed"},"step":{"line":16,"prefix":"Given","index":0,"text":"path \"\/user\""}},{"result":{"nanos":8764900,"millis":8.7649,"status":"passed"},"step":{"line":17,"prefix":"And","index":1,"text":"param page = 2"}},{"result":{"nanos":966112000,"millis":966.112,"status":"passed"},"step":{"line":18,"prefix":"When","index":2,"text":"method GET"},"stepLog":"20:00:50.873 request:\n1 > GET https:\/\/reqres.in\/api\/user?page=2\n1 > Accept: application\/json; charset=utf-8\n1 > Host: reqres.in\n1 > Connection: Keep-Alive\n1 > User-Agent: Apache-HttpClient\/4.5.12 (Java\/18.0.1.1)\n1 > Accept-Encoding: gzip,deflate\n\n\n20:00:51.425 response time in milliseconds: 552\n1 < 200\n1 < Date: Tue, 21 Feb 2023 19:00:51 GMT\n1 < Content-Type: application\/json; charset=utf-8\n1 < Transfer-Encoding: chunked\n1 < Connection: keep-alive\n1 < X-Powered-By: Express\n1 < Access-Control-Allow-Origin: *\n1 < Etag: W\/\"2c3-xEr0SjJUDYJR0qVFNJByQ5ZcdPc\"\n1 < Via: 1.1 vegur\n1 < Cache-Control: max-age=14400\n1 < CF-Cache-Status: MISS\n1 < Report-To: {\"endpoints\":[{\"url\":\"https:\\\/\\\/a.nel.cloudflare.com\\\/report\\\/v3?s=GepJzyDNXfvEZKHl2YaguOlQLRoWc%2FL%2FU8nPpbWLnt4GPMPxiZIjfuQ6590Hl5dUFvleDL7LiKEPXVlauyDmy7pyeUptmaY%2FeNm5Lda2P9s99Oa0lyYaQTLJww%3D%3D\"}],\"group\":\"cf-nel\",\"max_age\":604800}\n1 < NEL: {\"success_fraction\":0,\"report_to\":\"cf-nel\",\"max_age\":604800}\n1 < Vary: Accept-Encoding\n1 < Server: cloudflare\n1 < CF-RAY: 79d1ba2a2e24b51e-OSL\n{\"page\":2,\"per_page\":6,\"total\":12,\"total_pages\":2,\"data\":[{\"id\":7,\"name\":\"sand dollar\",\"year\":2006,\"color\":\"#DECDBE\",\"pantone_value\":\"13-1106\"},{\"id\":8,\"name\":\"chili pepper\",\"year\":2007,\"color\":\"#9B1B30\",\"pantone_value\":\"19-1557\"},{\"id\":9,\"name\":\"blue iris\",\"year\":2008,\"color\":\"#5A5B9F\",\"pantone_value\":\"18-3943\"},{\"id\":10,\"name\":\"mimosa\",\"year\":2009,\"color\":\"#F0C05A\",\"pantone_value\":\"14-0848\"},{\"id\":11,\"name\":\"turquoise\",\"year\":2010,\"color\":\"#45B5AA\",\"pantone_value\":\"15-5519\"},{\"id\":12,\"name\":\"honeysuckle\",\"year\":2011,\"color\":\"#D94F70\",\"pantone_value\":\"18-2120\"}],\"support\":{\"url\":\"https:\/\/reqres.in\/#support-heading\",\"text\":\"To keep ReqRes free, contributions towards server costs are appreciated!\"}}\n\n"},{"result":{"nanos":11680600,"millis":11.6806,"status":"passed"},"step":{"line":19,"prefix":"Then","index":3,"text":"status 200"}},{"result":{"nanos":108083800,"millis":108.0838,"status":"passed"},"step":{"line":20,"prefix":"And","index":4,"text":"print response"},"stepLog":"20:00:51.660 [print] {\n  \"page\": 2,\n  \"per_page\": 6,\n  \"total\": 12,\n  \"total_pages\": 2,\n  \"data\": [\n    {\n      \"id\": 7,\n      \"name\": \"sand dollar\",\n      \"year\": 2006,\n      \"color\": \"#DECDBE\",\n      \"pantone_value\": \"13-1106\"\n    },\n    {\n      \"id\": 8,\n      \"name\": \"chili pepper\",\n      \"year\": 2007,\n      \"color\": \"#9B1B30\",\n      \"pantone_value\": \"19-1557\"\n    },\n    {\n      \"id\": 9,\n      \"name\": \"blue iris\",\n      \"year\": 2008,\n      \"color\": \"#5A5B9F\",\n      \"pantone_value\": \"18-3943\"\n    },\n    {\n      \"id\": 10,\n      \"name\": \"mimosa\",\n      \"year\": 2009,\n      \"color\": \"#F0C05A\",\n      \"pantone_value\": \"14-0848\"\n    },\n    {\n      \"id\": 11,\n      \"name\": \"turquoise\",\n      \"year\": 2010,\n      \"color\": \"#45B5AA\",\n      \"pantone_value\": \"15-5519\"\n    },\n    {\n      \"id\": 12,\n      \"name\": \"honeysuckle\",\n      \"year\": 2011,\n      \"color\": \"#D94F70\",\n      \"pantone_value\": \"18-2120\"\n    }\n  ],\n  \"support\": {\n    \"url\": \"https:\/\/reqres.in\/#support-heading\",\n    \"text\": \"To keep ReqRes free, contributions towards server costs are appreciated!\"\n  }\n}\n \n"}],"executorName":"main","line":15,"name":"Request with path and param","description":"","durationMillis":1221.6407,"startTime":1677006050425,"failed":false,"refId":"[2:15]","endTime":1677006051660,"exampleIndex":-1}],"callDepth":0,"name":"CRUD","description":"","resultDate":"2023-02-21 08:00:51 em","durationMillis":1221.6407,"passedCount":1}